[2015-09-04 16:33:11,992 DEBUG samuraix.main 95] parsing options...
[2015-09-04 16:33:12,002 DEBUG samuraix.main 113] handling options... {'debug': False, 'configfile': None, 'dumpconfig': False} []
[2015-09-04 16:33:12,002 INFO samuraix.main 84] reading config from /root/.samuraix...
[2015-09-04 16:33:12,002 WARNING samuraix.main 89] failed reading config file: [Errno 2] No such file or directory: '/root/.samuraix'
[2015-09-04 16:33:12,002 INFO samuraix.main 71] loading config...
[2015-09-04 16:33:12,005 DEBUG samuraix.procutil 7] setting process name to samurai-x
[2015-09-04 16:33:12,005 INFO samuraix.xhelpers 52] opening display...
[2015-09-04 16:33:12,005 INFO samuraix.xhelpers 57] connecting to :1
[2015-09-04 16:33:12,006 INFO samuraix.xhelpers 75] checking for other wm...
[2015-09-04 16:33:12,007 INFO samuraix.xhelpers 138] installing x error handler...
[2015-09-04 16:33:12,007 DEBUG samuraix.main 20] creating atoms instance...
[2015-09-04 16:33:12,007 INFO samuraix.xhelpers 90] fetching numlock mask...
[2015-09-04 16:33:12,008 DEBUG samuraix.main 26] creating cursors instance...
[2015-09-04 16:33:12,011 DEBUG samuraix.main 35] creating timer...
[2015-09-04 16:33:12,011 INFO samuraix.main 158] creating app instance...
[2015-09-04 16:33:12,011 INFO samuraix.appl 54] app <samuraix.appl.App object at 0x7f49880f5b50> initialising...
[2015-09-04 16:33:12,011 INFO samuraix.appl 56] registering signal handlers...
[2015-09-04 16:33:12,011 INFO samuraix.appl 127] creating screens...
[2015-09-04 16:33:12,011 DEBUG samuraix.screen 92] cant find config for screen 0
[2015-09-04 16:33:12,012 INFO samuraix.desktop 20] created new desktop <Desktop 'one' on <Screen num=0>>
[2015-09-04 16:33:12,012 INFO samuraix.desktop 20] created new desktop <Desktop 'two' on <Screen num=0>>
[2015-09-04 16:33:12,012 INFO samuraix.desktop 20] created new desktop <Desktop 'three' on <Screen num=0>>
[2015-09-04 16:33:12,013 DEBUG samuraix.drawcontext 29] created drawcontext <samuraix.drawcontext.DrawContext object at 0x7f49880f5f50>
[2015-09-04 16:33:12,013 DEBUG samuraix.drawcontext 29] created drawcontext <samuraix.drawcontext.DrawContext object at 0x7f49880f5e90>
