add display for command being run
key up and down (in menu and as history) 
add colors to ouput text (based on stderr in out) 
add bash input line (shit-tab will take you to bash mode.. ATM no prompt is shown) 

add PWD display
status
  PWD
  disk-space
  Show Target shit:
    Size of file
    what's in a folder
    
bug; no sudo:
  cannot run sudo su (su works okay)  #in bash  mode (shit-tab)


Todo:
  add job management (jobs will have its own bar to display the name.) (and possibly their own pty too)
  show apps run more offten first (for auto comp) 

Examples of functions that need implemented.  
Syntax:
/user/entered/file.??  console parsed filetype
                                   functions we can do with this filetype
  
  Spec .001
  /lib/somthing.so.0  target:file
                      list
                      copy
                      move
                      edit
                      rename
                      integrity check
                                (Run rpm on file)

                          
  192.168.1.12        target:IP
                      ping
                      ssh
                      netstat
                      file-manager
                    
                    
  /dev/sda1           target:Partition
                      umount
                      remount Readable and writable
                      format
  http://someing.html  target:url
                      ping
                      download
                      links
                      w3m
                      repo (that's a repo)
                      (what ever desktop apps can run urls.. Firefox chrome Icecat etc)

  /var/something.gz  target:archive, file
                    extract to <autocomp file>
                    (plus the file functions.. list copy etc)
                    
  /home/user/folder/ target: folder
                    move
                    change own/per
                    archive as .zip
                    
  play               target: allGames
                    (all .dekstop that show as games) 

  edit with <auto .desktops that edit>
  write with <audo .deskops that write... office apps> 
